<svg class="_0 _1 _8 _12 _5" height="200px" viewBox="0 0 1052 1362" seg16>
  <path class="s0" d="M360,75L325,105L375,160H565L615,115L580,75H360Z" />
  <path class="s1" d="M700,75L645,120L685,160H865L935,100L910,75H700Z" />
  <path class="s2" d="M945,117.5L880,177.5L795,622.5L830,662.5L882.5,615L972.5,150L945,117.5Z" />
  <path class="s3" d="M822.5,690L767.5,740L692.5,1185L740,1237.5L777.5,1207.5L860,730L822.5,690Z" />
  <path class="s4" d="M490,1200L437.5,1240L472.5,1282.5H690L722.5,1252.5L675,1200H490Z" />
  <path class="s5" d="M180,1200L112.5,1260L135,1282.5H352.5L402.5,1235L372.5,1200H180Z" />
  <path class="s6" d="M220,692.5L165,740L75,1215L102.5,1240L172.5,1180L255,735L220,692.5Z" />
  <path class="s7" d="M305,115L272.5,147.5L187.5,622.5L225,662.5L277.5,617.5L357.5,172.5L305,115Z" />
  <path class="s8" d="M625,130L570,180L510,485L525,655L605,490L665,170L625,130Z" />
  <path class="s9" d="M865,185L775,260L640.58,445.7L530,670L625,615L840,315L865,185Z" />
  <path class="s10" d="M615,637.5L540,677.5L592.5,720H757.5L810,672.5L777.5,637.5H615Z" />
  <path class="s11" d="M530,682.5L547.5,870L632.5,1107.5L685,1175L705,1050L587.5,730L530,682.5Z" />
  <path class="s12" d="M520,699.79L440,870L385,1180L422.5,1222.5L480,1177.5L534.43,848.43L520,699.79Z" />
  <path class="s13" d="M516.71,681.57L422.99,735.14L210,1035L190,1165L275,1090L415,890L516.71,681.57Z" />
  <path class="s14" d="M285,637.5L237.5,680L270,720H427.5L505,675L457.5,637.5H285Z" />
  <path class="s15" d="M365,185L345,310L455,620L515,670L500,490L420,245L365,185Z" />
  <path class="s16" d="M927,1187A50,50,0,0,0,877,1237A50,50,0,0,0,927,1287A50,50,0,0,0,977,1237A50,50,0,0,0,927,1187Z" />
</svg>
