<svg class="_0 _2 _3 _5 _6" height="200px" viewBox="0 0 535.15647 894.135" seg7>
   <path class="s0" d="M178.52,60S147.93,65.557,134.34,72.621C121.74,79.176,101.21,99.445,101.21,99.445L205.350,148.360L350.51,146.780L405.73,66.311L178.52,60.000Z" />
   <path class="s1" d="M427.82,77.355L369.44,164.14L359.970,383.46L440.440,437.100L460.960,416.59L475.160,138.89S467.870,114.630,457.530,102.430C450.730,94.400,427.820,77.355,427.820,77.355Z" />
   <path class="s2" d="M451.494,478.12L353.664,512.84L345.774,738.47L397.844,822.09S429.414,803.77,438.874,788.96C448.204,774.33,451.494,738.47,451.494,738.47L462.534,493.9L451.494,478.120Z" />
   <path class="s3" d="M324.484,753.09L175.894,753.59L74.324,802.62C74.326,802.62,92.017,817.9,102.324,823.16C112.004,828.1,133.364,833.14,133.364,833.14L376.514,834.13L324.484,753.09Z" />
   <path class="s4" d="M91.80,474.195L65.5790,492.595L60.001,780.445L160.971,732.475L169.891,512.125L91.8,474.195Z" />
   <path class="s5" d="M83.854,123.12L64.922,413.44L93.541,431.01L169.06,385.040L183.26,168.870L83.854,123.120Z" />
   <path class="s6" d="M192.304,400.81L108.684,451.3L178.104,486.02L335.894,493.9L428.574,460.360L340.654,401.65L192.304,400.81Z" />
</svg>
